National Election Analytics – Ibtesam Ifaz
…
# Exclude redistributed seats
final_classification <- classified_divisions |>
  filter(!DivisionNm %in% c("Stirling", "Hawke"))

print(final_classification)

# A tibble: 150 × 4
   DivisionNm Party2019              Party2022              IndependentStatus
   <chr>      <chr>                  <chr>                  <chr>            
 1 Adelaide   Australian Labor Party Australian Labor Party Lost             
 2 Aston      Liberal                Liberal                Lost             
 3 Ballarat   Australian Labor Party Australian Labor Party Lost             
 4 Banks      Liberal                Liberal                Lost             
 5 Barker     Liberal                Liberal                Lost             
 6 Barton     Labor                  Labor                  Lost             
 7 Bass       Liberal                Liberal                Lost             
 8 Bean       Australian Labor Party Australian Labor Party Lost             
 9 Bendigo    Australian Labor Party Australian Labor Party Lost             
10 Bennelong  Liberal                Labor                  Lost             
# ℹ 140 more rows
…
